{
    "name": "Treasure Orb Third-eye",
    "image": "https://backend.cryptorb.cc/pic/treasureBall_2.png",
    "animation_url": "https://backend.cryptorb.cc/treasureBall_2.html",
    "description": "Crypto Orb is an on-chain NFT with 3D treasure Orb. Different attributes will be generated when mint it. Pink means I see clearly ",
    "attributes": [
      {
        "trait_type": "Color",
        "value": "Pink"
      },
      {
        "trait_type": "Level",
        "value": 2
      },
      {
        "trait_type": "Material",
        "value": "Kunzite"
      }
    ]
  }