{
  "contractName": "IERC721Enumerable",
  "abi": [
    {
      "anonymous": false,
      "inputs": [
        {
          "indexed": true,
          "internalType": "address",
          "name": "owner",
          "type": "address"
        },
        {
          "indexed": true,
          "internalType": "address",
          "name": "approved",
          "type": "address"
        },
        {
          "indexed": true,
          "internalType": "uint256",
          "name": "tokenId",
          "type": "uint256"
        }
      ],
      "name": "Approval",
      "type": "event"
    },
    {
      "anonymous": false,
      "inputs": [
        {
          "indexed": true,
          "internalType": "address",
          "name": "owner",
          "type": "address"
        },
        {
          "indexed": true,
          "internalType": "address",
          "name": "operator",
          "type": "address"
        },
        {
          "indexed": false,
          "internalType": "bool",
          "name": "approved",
          "type": "bool"
        }
      ],
      "name": "ApprovalForAll",
      "type": "event"
    },
    {
      "anonymous": false,
      "inputs": [
        {
          "indexed": true,
          "internalType": "address",
          "name": "from",
          "type": "address"
        },
        {
          "indexed": true,
          "internalType": "address",
          "name": "to",
          "type": "address"
        },
        {
          "indexed": true,
          "internalType": "uint256",
          "name": "tokenId",
          "type": "uint256"
        }
      ],
      "name": "Transfer",
      "type": "event"
    },
    {
      "inputs": [
        {
          "internalType": "address",
          "name": "to",
          "type": "address"
        },
        {
          "internalType": "uint256",
          "name": "tokenId",
          "type": "uint256"
        }
      ],
      "name": "approve",
      "outputs": [],
      "stateMutability": "nonpayable",
      "type": "function"
    },
    {
      "inputs": [
        {
          "internalType": "address",
          "name": "owner",
          "type": "address"
        }
      ],
      "name": "balanceOf",
      "outputs": [
        {
          "internalType": "uint256",
          "name": "balance",
          "type": "uint256"
        }
      ],
      "stateMutability": "view",
      "type": "function"
    },
    {
      "inputs": [
        {
          "internalType": "uint256",
          "name": "tokenId",
          "type": "uint256"
        }
      ],
      "name": "getApproved",
      "outputs": [
        {
          "internalType": "address",
          "name": "operator",
          "type": "address"
        }
      ],
      "stateMutability": "view",
      "type": "function"
    },
    {
      "inputs": [
        {
          "internalType": "address",
          "name": "owner",
          "type": "address"
        },
        {
          "internalType": "address",
          "name": "operator",
          "type": "address"
        }
      ],
      "name": "isApprovedForAll",
      "outputs": [
        {
          "internalType": "bool",
          "name": "",
          "type": "bool"
        }
      ],
      "stateMutability": "view",
      "type": "function"
    },
    {
      "inputs": [
        {
          "internalType": "uint256",
          "name": "tokenId",
          "type": "uint256"
        }
      ],
      "name": "ownerOf",
      "outputs": [
        {
          "internalType": "address",
          "name": "owner",
          "type": "address"
        }
      ],
      "stateMutability": "view",
      "type": "function"
    },
    {
      "inputs": [
        {
          "internalType": "address",
          "name": "from",
          "type": "address"
        },
        {
          "internalType": "address",
          "name": "to",
          "type": "address"
        },
        {
          "internalType": "uint256",
          "name": "tokenId",
          "type": "uint256"
        }
      ],
      "name": "safeTransferFrom",
      "outputs": [],
      "stateMutability": "nonpayable",
      "type": "function"
    },
    {
      "inputs": [
        {
          "internalType": "address",
          "name": "from",
          "type": "address"
        },
        {
          "internalType": "address",
          "name": "to",
          "type": "address"
        },
        {
          "internalType": "uint256",
          "name": "tokenId",
          "type": "uint256"
        },
        {
          "internalType": "bytes",
          "name": "data",
          "type": "bytes"
        }
      ],
      "name": "safeTransferFrom",
      "outputs": [],
      "stateMutability": "nonpayable",
      "type": "function"
    },
    {
      "inputs": [
        {
          "internalType": "address",
          "name": "operator",
          "type": "address"
        },
        {
          "internalType": "bool",
          "name": "_approved",
          "type": "bool"
        }
      ],
      "name": "setApprovalForAll",
      "outputs": [],
      "stateMutability": "nonpayable",
      "type": "function"
    },
    {
      "inputs": [
        {
          "internalType": "bytes4",
          "name": "interfaceId",
          "type": "bytes4"
        }
      ],
      "name": "supportsInterface",
      "outputs": [
        {
          "internalType": "bool",
          "name": "",
          "type": "bool"
        }
      ],
      "stateMutability": "view",
      "type": "function"
    },
    {
      "inputs": [
        {
          "internalType": "address",
          "name": "from",
          "type": "address"
        },
        {
          "internalType": "address",
          "name": "to",
          "type": "address"
        },
        {
          "internalType": "uint256",
          "name": "tokenId",
          "type": "uint256"
        }
      ],
      "name": "transferFrom",
      "outputs": [],
      "stateMutability": "nonpayable",
      "type": "function"
    },
    {
      "inputs": [],
      "name": "totalSupply",
      "outputs": [
        {
          "internalType": "uint256",
          "name": "",
          "type": "uint256"
        }
      ],
      "stateMutability": "view",
      "type": "function"
    },
    {
      "inputs": [
        {
          "internalType": "address",
          "name": "owner",
          "type": "address"
        },
        {
          "internalType": "uint256",
          "name": "index",
          "type": "uint256"
        }
      ],
      "name": "tokenOfOwnerByIndex",
      "outputs": [
        {
          "internalType": "uint256",
          "name": "",
          "type": "uint256"
        }
      ],
      "stateMutability": "view",
      "type": "function"
    },
    {
      "inputs": [
        {
          "internalType": "uint256",
          "name": "index",
          "type": "uint256"
        }
      ],
      "name": "tokenByIndex",
      "outputs": [
        {
          "internalType": "uint256",
          "name": "",
          "type": "uint256"
        }
      ],
      "stateMutability": "view",
      "type": "function"
    }
  ],
  "metadata": "{\"compiler\":{\"version\":\"0.8.1+commit.df193b15\"},\"language\":\"Solidity\",\"output\":{\"abi\":[{\"anonymous\":false,\"inputs\":[{\"indexed\":true,\"internalType\":\"address\",\"name\":\"owner\",\"type\":\"address\"},{\"indexed\":true,\"internalType\":\"address\",\"name\":\"approved\",\"type\":\"address\"},{\"indexed\":true,\"internalType\":\"uint256\",\"name\":\"tokenId\",\"type\":\"uint256\"}],\"name\":\"Approval\",\"type\":\"event\"},{\"anonymous\":false,\"inputs\":[{\"indexed\":true,\"internalType\":\"address\",\"name\":\"owner\",\"type\":\"address\"},{\"indexed\":true,\"internalType\":\"address\",\"name\":\"operator\",\"type\":\"address\"},{\"indexed\":false,\"internalType\":\"bool\",\"name\":\"approved\",\"type\":\"bool\"}],\"name\":\"ApprovalForAll\",\"type\":\"event\"},{\"anonymous\":false,\"inputs\":[{\"indexed\":true,\"internalType\":\"address\",\"name\":\"from\",\"type\":\"address\"},{\"indexed\":true,\"internalType\":\"address\",\"name\":\"to\",\"type\":\"address\"},{\"indexed\":true,\"internalType\":\"uint256\",\"name\":\"tokenId\",\"type\":\"uint256\"}],\"name\":\"Transfer\",\"type\":\"event\"},{\"inputs\":[{\"internalType\":\"address\",\"name\":\"to\",\"type\":\"address\"},{\"internalType\":\"uint256\",\"name\":\"tokenId\",\"type\":\"uint256\"}],\"name\":\"approve\",\"outputs\":[],\"stateMutability\":\"nonpayable\",\"type\":\"function\"},{\"inputs\":[{\"internalType\":\"address\",\"name\":\"owner\",\"type\":\"address\"}],\"name\":\"balanceOf\",\"outputs\":[{\"internalType\":\"uint256\",\"name\":\"balance\",\"type\":\"uint256\"}],\"stateMutability\":\"view\",\"type\":\"function\"},{\"inputs\":[{\"internalType\":\"uint256\",\"name\":\"tokenId\",\"type\":\"uint256\"}],\"name\":\"getApproved\",\"outputs\":[{\"internalType\":\"address\",\"name\":\"operator\",\"type\":\"address\"}],\"stateMutability\":\"view\",\"type\":\"function\"},{\"inputs\":[{\"internalType\":\"address\",\"name\":\"owner\",\"type\":\"address\"},{\"internalType\":\"address\",\"name\":\"operator\",\"type\":\"address\"}],\"name\":\"isApprovedForAll\",\"outputs\":[{\"internalType\":\"bool\",\"name\":\"\",\"type\":\"bool\"}],\"stateMutability\":\"view\",\"type\":\"function\"},{\"inputs\":[{\"internalType\":\"uint256\",\"name\":\"tokenId\",\"type\":\"uint256\"}],\"name\":\"ownerOf\",\"outputs\":[{\"internalType\":\"address\",\"name\":\"owner\",\"type\":\"address\"}],\"stateMutability\":\"view\",\"type\":\"function\"},{\"inputs\":[{\"internalType\":\"address\",\"name\":\"from\",\"type\":\"address\"},{\"internalType\":\"address\",\"name\":\"to\",\"type\":\"address\"},{\"internalType\":\"uint256\",\"name\":\"tokenId\",\"type\":\"uint256\"}],\"name\":\"safeTransferFrom\",\"outputs\":[],\"stateMutability\":\"nonpayable\",\"type\":\"function\"},{\"inputs\":[{\"internalType\":\"address\",\"name\":\"from\",\"type\":\"address\"},{\"internalType\":\"address\",\"name\":\"to\",\"type\":\"address\"},{\"internalType\":\"uint256\",\"name\":\"tokenId\",\"type\":\"uint256\"},{\"internalType\":\"bytes\",\"name\":\"data\",\"type\":\"bytes\"}],\"name\":\"safeTransferFrom\",\"outputs\":[],\"stateMutability\":\"nonpayable\",\"type\":\"function\"},{\"inputs\":[{\"internalType\":\"address\",\"name\":\"operator\",\"type\":\"address\"},{\"internalType\":\"bool\",\"name\":\"_approved\",\"type\":\"bool\"}],\"name\":\"setApprovalForAll\",\"outputs\":[],\"stateMutability\":\"nonpayable\",\"type\":\"function\"},{\"inputs\":[{\"internalType\":\"bytes4\",\"name\":\"interfaceId\",\"type\":\"bytes4\"}],\"name\":\"supportsInterface\",\"outputs\":[{\"internalType\":\"bool\",\"name\":\"\",\"type\":\"bool\"}],\"stateMutability\":\"view\",\"type\":\"function\"},{\"inputs\":[{\"internalType\":\"uint256\",\"name\":\"index\",\"type\":\"uint256\"}],\"name\":\"tokenByIndex\",\"outputs\":[{\"internalType\":\"uint256\",\"name\":\"\",\"type\":\"uint256\"}],\"stateMutability\":\"view\",\"type\":\"function\"},{\"inputs\":[{\"internalType\":\"address\",\"name\":\"owner\",\"type\":\"address\"},{\"internalType\":\"uint256\",\"name\":\"index\",\"type\":\"uint256\"}],\"name\":\"tokenOfOwnerByIndex\",\"outputs\":[{\"internalType\":\"uint256\",\"name\":\"\",\"type\":\"uint256\"}],\"stateMutability\":\"view\",\"type\":\"function\"},{\"inputs\":[],\"name\":\"totalSupply\",\"outputs\":[{\"internalType\":\"uint256\",\"name\":\"\",\"type\":\"uint256\"}],\"stateMutability\":\"view\",\"type\":\"function\"},{\"inputs\":[{\"internalType\":\"address\",\"name\":\"from\",\"type\":\"address\"},{\"internalType\":\"address\",\"name\":\"to\",\"type\":\"address\"},{\"internalType\":\"uint256\",\"name\":\"tokenId\",\"type\":\"uint256\"}],\"name\":\"transferFrom\",\"outputs\":[],\"stateMutability\":\"nonpayable\",\"type\":\"function\"}],\"devdoc\":{\"details\":\"See https://eips.ethereum.org/EIPS/eip-721\",\"kind\":\"dev\",\"methods\":{\"approve(address,uint256)\":{\"details\":\"Gives permission to `to` to transfer `tokenId` token to another account. The approval is cleared when the token is transferred. Only a single account can be approved at a time, so approving the zero address clears previous approvals. Requirements: - The caller must own the token or be an approved operator. - `tokenId` must exist. Emits an {Approval} event.\"},\"balanceOf(address)\":{\"details\":\"Returns the number of tokens in ``owner``'s account.\"},\"getApproved(uint256)\":{\"details\":\"Returns the account approved for `tokenId` token. Requirements: - `tokenId` must exist.\"},\"isApprovedForAll(address,address)\":{\"details\":\"Returns if the `operator` is allowed to manage all of the assets of `owner`. See {setApprovalForAll}\"},\"ownerOf(uint256)\":{\"details\":\"Returns the owner of the `tokenId` token. Requirements: - `tokenId` must exist.\"},\"safeTransferFrom(address,address,uint256)\":{\"details\":\"Safely transfers `tokenId` token from `from` to `to`, checking first that contract recipients are aware of the ERC721 protocol to prevent tokens from being forever locked. Requirements: - `from` cannot be the zero address. - `to` cannot be the zero address. - `tokenId` token must exist and be owned by `from`. - If the caller is not `from`, it must be have been allowed to move this token by either {approve} or {setApprovalForAll}. - If `to` refers to a smart contract, it must implement {IERC721Receiver-onERC721Received}, which is called upon a safe transfer. Emits a {Transfer} event.\"},\"safeTransferFrom(address,address,uint256,bytes)\":{\"details\":\"Safely transfers `tokenId` token from `from` to `to`. Requirements: - `from` cannot be the zero address. - `to` cannot be the zero address. - `tokenId` token must exist and be owned by `from`. - If the caller is not `from`, it must be approved to move this token by either {approve} or {setApprovalForAll}. - If `to` refers to a smart contract, it must implement {IERC721Receiver-onERC721Received}, which is called upon a safe transfer. Emits a {Transfer} event.\"},\"setApprovalForAll(address,bool)\":{\"details\":\"Approve or remove `operator` as an operator for the caller. Operators can call {transferFrom} or {safeTransferFrom} for any token owned by the caller. Requirements: - The `operator` cannot be the caller. Emits an {ApprovalForAll} event.\"},\"supportsInterface(bytes4)\":{\"details\":\"Returns true if this contract implements the interface defined by `interfaceId`. See the corresponding https://eips.ethereum.org/EIPS/eip-165#how-interfaces-are-identified[EIP section] to learn more about how these ids are created. This function call must use less than 30 000 gas.\"},\"tokenByIndex(uint256)\":{\"details\":\"Returns a token ID at a given `index` of all the tokens stored by the contract. Use along with {totalSupply} to enumerate all tokens.\"},\"tokenOfOwnerByIndex(address,uint256)\":{\"details\":\"Returns a token ID owned by `owner` at a given `index` of its token list. Use along with {balanceOf} to enumerate all of ``owner``'s tokens.\"},\"totalSupply()\":{\"details\":\"Returns the total amount of tokens stored by the contract.\"},\"transferFrom(address,address,uint256)\":{\"details\":\"Transfers `tokenId` token from `from` to `to`. WARNING: Usage of this method is discouraged, use {safeTransferFrom} whenever possible. Requirements: - `from` cannot be the zero address. - `to` cannot be the zero address. - `tokenId` token must be owned by `from`. - If the caller is not `from`, it must be approved to move this token by either {approve} or {setApprovalForAll}. Emits a {Transfer} event.\"}},\"title\":\"ERC-721 Non-Fungible Token Standard, optional enumeration extension\",\"version\":1},\"userdoc\":{\"kind\":\"user\",\"methods\":{},\"version\":1}},\"settings\":{\"compilationTarget\":{\"project:/client/node_modules/@openzeppelin/contracts/token/ERC721/extensions/IERC721Enumerable.sol\":\"IERC721Enumerable\"},\"evmVersion\":\"istanbul\",\"libraries\":{},\"metadata\":{\"bytecodeHash\":\"ipfs\"},\"optimizer\":{\"enabled\":false,\"runs\":200},\"remappings\":[]},\"sources\":{\"project:/client/node_modules/@openzeppelin/contracts/token/ERC721/IERC721.sol\":{\"keccak256\":\"0x516a22876c1fab47f49b1bc22b4614491cd05338af8bd2e7b382da090a079990\",\"license\":\"MIT\",\"urls\":[\"bzz-raw://a439187f7126d31add4557f82d8aed6be0162007cd7182c48fd934dbab8f3849\",\"dweb:/ipfs/QmRPLguRFvrRJS7r6F1bcLvsx6q1VrgjEpZafyeL8D7xZh\"]},\"project:/client/node_modules/@openzeppelin/contracts/token/ERC721/extensions/IERC721Enumerable.sol\":{\"keccak256\":\"0xd1556954440b31c97a142c6ba07d5cade45f96fafd52091d33a14ebe365aecbf\",\"license\":\"MIT\",\"urls\":[\"bzz-raw://26fef835622b46a5ba08b3ef6b46a22e94b5f285d0f0fb66b703bd30217d2c34\",\"dweb:/ipfs/QmZ548qdwfL1qF7aXz3xh1GCdTiST81kGGuKRqVUfYmPZR\"]},\"project:/client/node_modules/@openzeppelin/contracts/utils/introspection/IERC165.sol\":{\"keccak256\":\"0x447a5f3ddc18419d41ff92b3773fb86471b1db25773e07f877f548918a185bf1\",\"license\":\"MIT\",\"urls\":[\"bzz-raw://be161e54f24e5c6fae81a12db1a8ae87bc5ae1b0ddc805d82a1440a68455088f\",\"dweb:/ipfs/QmP7C3CHdY9urF4dEMb9wmsp1wMxHF6nhA2yQE5SKiPAdy\"]}},\"version\":1}",
  "bytecode": "0x",
  "deployedBytecode": "0x",
  "immutableReferences": {},
  "generatedSources": [],
  "deployedGeneratedSources": [],
  "sourceMap": "",
  "deployedSourceMap": "",
  "source": "// SPDX-License-Identifier: MIT\n// OpenZeppelin Contracts (last updated v4.5.0) (token/ERC721/extensions/IERC721Enumerable.sol)\n\npragma solidity ^0.8.0;\n\nimport \"../IERC721.sol\";\n\n/**\n * @title ERC-721 Non-Fungible Token Standard, optional enumeration extension\n * @dev See https://eips.ethereum.org/EIPS/eip-721\n */\ninterface IERC721Enumerable is IERC721 {\n    /**\n     * @dev Returns the total amount of tokens stored by the contract.\n     */\n    function totalSupply() external view returns (uint256);\n\n    /**\n     * @dev Returns a token ID owned by `owner` at a given `index` of its token list.\n     * Use along with {balanceOf} to enumerate all of ``owner``'s tokens.\n     */\n    function tokenOfOwnerByIndex(address owner, uint256 index) external view returns (uint256);\n\n    /**\n     * @dev Returns a token ID at a given `index` of all the tokens stored by the contract.\n     * Use along with {totalSupply} to enumerate all tokens.\n     */\n    function tokenByIndex(uint256 index) external view returns (uint256);\n}\n",
  "sourcePath": "/Users/jerrylee/Sites/NTF/cryptoNFT/client/node_modules/@openzeppelin/contracts/token/ERC721/extensions/IERC721Enumerable.sol",
  "ast": {
    "absolutePath": "project:/client/node_modules/@openzeppelin/contracts/token/ERC721/extensions/IERC721Enumerable.sol",
    "exportedSymbols": {
      "IERC165": [
        4418
      ],
      "IERC721": [
        2401
      ],
      "IERC721Enumerable": [
        2916
      ]
    },
    "id": 2917,
    "license": "MIT",
    "nodeType": "SourceUnit",
    "nodes": [
      {
        "id": 2887,
        "literals": [
          "solidity",
          "^",
          "0.8",
          ".0"
        ],
        "nodeType": "PragmaDirective",
        "src": "129:23:12"
      },
      {
        "absolutePath": "project:/client/node_modules/@openzeppelin/contracts/token/ERC721/IERC721.sol",
        "file": "../IERC721.sol",
        "id": 2888,
        "nodeType": "ImportDirective",
        "scope": 2917,
        "sourceUnit": 2402,
        "src": "154:24:12",
        "symbolAliases": [],
        "unitAlias": ""
      },
      {
        "abstract": false,
        "baseContracts": [
          {
            "baseName": {
              "id": 2890,
              "name": "IERC721",
              "nodeType": "IdentifierPath",
              "referencedDeclaration": 2401,
              "src": "348:7:12"
            },
            "id": 2891,
            "nodeType": "InheritanceSpecifier",
            "src": "348:7:12"
          }
        ],
        "contractDependencies": [
          2401,
          4418
        ],
        "contractKind": "interface",
        "documentation": {
          "id": 2889,
          "nodeType": "StructuredDocumentation",
          "src": "180:136:12",
          "text": " @title ERC-721 Non-Fungible Token Standard, optional enumeration extension\n @dev See https://eips.ethereum.org/EIPS/eip-721"
        },
        "fullyImplemented": false,
        "id": 2916,
        "linearizedBaseContracts": [
          2916,
          2401,
          4418
        ],
        "name": "IERC721Enumerable",
        "nodeType": "ContractDefinition",
        "nodes": [
          {
            "documentation": {
              "id": 2892,
              "nodeType": "StructuredDocumentation",
              "src": "362:82:12",
              "text": " @dev Returns the total amount of tokens stored by the contract."
            },
            "functionSelector": "18160ddd",
            "id": 2897,
            "implemented": false,
            "kind": "function",
            "modifiers": [],
            "name": "totalSupply",
            "nodeType": "FunctionDefinition",
            "parameters": {
              "id": 2893,
              "nodeType": "ParameterList",
              "parameters": [],
              "src": "469:2:12"
            },
            "returnParameters": {
              "id": 2896,
              "nodeType": "ParameterList",
              "parameters": [
                {
                  "constant": false,
                  "id": 2895,
                  "mutability": "mutable",
                  "name": "",
                  "nodeType": "VariableDeclaration",
                  "scope": 2897,
                  "src": "495:7:12",
                  "stateVariable": false,
                  "storageLocation": "default",
                  "typeDescriptions": {
                    "typeIdentifier": "t_uint256",
                    "typeString": "uint256"
                  },
                  "typeName": {
                    "id": 2894,
                    "name": "uint256",
                    "nodeType": "ElementaryTypeName",
                    "src": "495:7:12",
                    "typeDescriptions": {
                      "typeIdentifier": "t_uint256",
                      "typeString": "uint256"
                    }
                  },
                  "visibility": "internal"
                }
              ],
              "src": "494:9:12"
            },
            "scope": 2916,
            "src": "449:55:12",
            "stateMutability": "view",
            "virtual": false,
            "visibility": "external"
          },
          {
            "documentation": {
              "id": 2898,
              "nodeType": "StructuredDocumentation",
              "src": "510:171:12",
              "text": " @dev Returns a token ID owned by `owner` at a given `index` of its token list.\n Use along with {balanceOf} to enumerate all of ``owner``'s tokens."
            },
            "functionSelector": "2f745c59",
            "id": 2907,
            "implemented": false,
            "kind": "function",
            "modifiers": [],
            "name": "tokenOfOwnerByIndex",
            "nodeType": "FunctionDefinition",
            "parameters": {
              "id": 2903,
              "nodeType": "ParameterList",
              "parameters": [
                {
                  "constant": false,
                  "id": 2900,
                  "mutability": "mutable",
                  "name": "owner",
                  "nodeType": "VariableDeclaration",
                  "scope": 2907,
                  "src": "715:13:12",
                  "stateVariable": false,
                  "storageLocation": "default",
                  "typeDescriptions": {
                    "typeIdentifier": "t_address",
                    "typeString": "address"
                  },
                  "typeName": {
                    "id": 2899,
                    "name": "address",
                    "nodeType": "ElementaryTypeName",
                    "src": "715:7:12",
                    "stateMutability": "nonpayable",
                    "typeDescriptions": {
                      "typeIdentifier": "t_address",
                      "typeString": "address"
                    }
                  },
                  "visibility": "internal"
                },
                {
                  "constant": false,
                  "id": 2902,
                  "mutability": "mutable",
                  "name": "index",
                  "nodeType": "VariableDeclaration",
                  "scope": 2907,
                  "src": "730:13:12",
                  "stateVariable": false,
                  "storageLocation": "default",
                  "typeDescriptions": {
                    "typeIdentifier": "t_uint256",
                    "typeString": "uint256"
                  },
                  "typeName": {
                    "id": 2901,
                    "name": "uint256",
                    "nodeType": "ElementaryTypeName",
                    "src": "730:7:12",
                    "typeDescriptions": {
                      "typeIdentifier": "t_uint256",
                      "typeString": "uint256"
                    }
                  },
                  "visibility": "internal"
                }
              ],
              "src": "714:30:12"
            },
            "returnParameters": {
              "id": 2906,
              "nodeType": "ParameterList",
              "parameters": [
                {
                  "constant": false,
                  "id": 2905,
                  "mutability": "mutable",
                  "name": "",
                  "nodeType": "VariableDeclaration",
                  "scope": 2907,
                  "src": "768:7:12",
                  "stateVariable": false,
                  "storageLocation": "default",
                  "typeDescriptions": {
                    "typeIdentifier": "t_uint256",
                    "typeString": "uint256"
                  },
                  "typeName": {
                    "id": 2904,
                    "name": "uint256",
                    "nodeType": "ElementaryTypeName",
                    "src": "768:7:12",
                    "typeDescriptions": {
                      "typeIdentifier": "t_uint256",
                      "typeString": "uint256"
                    }
                  },
                  "visibility": "internal"
                }
              ],
              "src": "767:9:12"
            },
            "scope": 2916,
            "src": "686:91:12",
            "stateMutability": "view",
            "virtual": false,
            "visibility": "external"
          },
          {
            "documentation": {
              "id": 2908,
              "nodeType": "StructuredDocumentation",
              "src": "783:164:12",
              "text": " @dev Returns a token ID at a given `index` of all the tokens stored by the contract.\n Use along with {totalSupply} to enumerate all tokens."
            },
            "functionSelector": "4f6ccce7",
            "id": 2915,
            "implemented": false,
            "kind": "function",
            "modifiers": [],
            "name": "tokenByIndex",
            "nodeType": "FunctionDefinition",
            "parameters": {
              "id": 2911,
              "nodeType": "ParameterList",
              "parameters": [
                {
                  "constant": false,
                  "id": 2910,
                  "mutability": "mutable",
                  "name": "index",
                  "nodeType": "VariableDeclaration",
                  "scope": 2915,
                  "src": "974:13:12",
                  "stateVariable": false,
                  "storageLocation": "default",
                  "typeDescriptions": {
                    "typeIdentifier": "t_uint256",
                    "typeString": "uint256"
                  },
                  "typeName": {
                    "id": 2909,
                    "name": "uint256",
                    "nodeType": "ElementaryTypeName",
                    "src": "974:7:12",
                    "typeDescriptions": {
                      "typeIdentifier": "t_uint256",
                      "typeString": "uint256"
                    }
                  },
                  "visibility": "internal"
                }
              ],
              "src": "973:15:12"
            },
            "returnParameters": {
              "id": 2914,
              "nodeType": "ParameterList",
              "parameters": [
                {
                  "constant": false,
                  "id": 2913,
                  "mutability": "mutable",
                  "name": "",
                  "nodeType": "VariableDeclaration",
                  "scope": 2915,
                  "src": "1012:7:12",
                  "stateVariable": false,
                  "storageLocation": "default",
                  "typeDescriptions": {
                    "typeIdentifier": "t_uint256",
                    "typeString": "uint256"
                  },
                  "typeName": {
                    "id": 2912,
                    "name": "uint256",
                    "nodeType": "ElementaryTypeName",
                    "src": "1012:7:12",
                    "typeDescriptions": {
                      "typeIdentifier": "t_uint256",
                      "typeString": "uint256"
                    }
                  },
                  "visibility": "internal"
                }
              ],
              "src": "1011:9:12"
            },
            "scope": 2916,
            "src": "952:69:12",
            "stateMutability": "view",
            "virtual": false,
            "visibility": "external"
          }
        ],
        "scope": 2917,
        "src": "317:706:12"
      }
    ],
    "src": "129:895:12"
  },
  "legacyAST": {
    "absolutePath": "project:/client/node_modules/@openzeppelin/contracts/token/ERC721/extensions/IERC721Enumerable.sol",
    "exportedSymbols": {
      "IERC165": [
        4418
      ],
      "IERC721": [
        2401
      ],
      "IERC721Enumerable": [
        2916
      ]
    },
    "id": 2917,
    "license": "MIT",
    "nodeType": "SourceUnit",
    "nodes": [
      {
        "id": 2887,
        "literals": [
          "solidity",
          "^",
          "0.8",
          ".0"
        ],
        "nodeType": "PragmaDirective",
        "src": "129:23:12"
      },
      {
        "absolutePath": "project:/client/node_modules/@openzeppelin/contracts/token/ERC721/IERC721.sol",
        "file": "../IERC721.sol",
        "id": 2888,
        "nodeType": "ImportDirective",
        "scope": 2917,
        "sourceUnit": 2402,
        "src": "154:24:12",
        "symbolAliases": [],
        "unitAlias": ""
      },
      {
        "abstract": false,
        "baseContracts": [
          {
            "baseName": {
              "id": 2890,
              "name": "IERC721",
              "nodeType": "IdentifierPath",
              "referencedDeclaration": 2401,
              "src": "348:7:12"
            },
            "id": 2891,
            "nodeType": "InheritanceSpecifier",
            "src": "348:7:12"
          }
        ],
        "contractDependencies": [
          2401,
          4418
        ],
        "contractKind": "interface",
        "documentation": {
          "id": 2889,
          "nodeType": "StructuredDocumentation",
          "src": "180:136:12",
          "text": " @title ERC-721 Non-Fungible Token Standard, optional enumeration extension\n @dev See https://eips.ethereum.org/EIPS/eip-721"
        },
        "fullyImplemented": false,
        "id": 2916,
        "linearizedBaseContracts": [
          2916,
          2401,
          4418
        ],
        "name": "IERC721Enumerable",
        "nodeType": "ContractDefinition",
        "nodes": [
          {
            "documentation": {
              "id": 2892,
              "nodeType": "StructuredDocumentation",
              "src": "362:82:12",
              "text": " @dev Returns the total amount of tokens stored by the contract."
            },
            "functionSelector": "18160ddd",
            "id": 2897,
            "implemented": false,
            "kind": "function",
            "modifiers": [],
            "name": "totalSupply",
            "nodeType": "FunctionDefinition",
            "parameters": {
              "id": 2893,
              "nodeType": "ParameterList",
              "parameters": [],
              "src": "469:2:12"
            },
            "returnParameters": {
              "id": 2896,
              "nodeType": "ParameterList",
              "parameters": [
                {
                  "constant": false,
                  "id": 2895,
                  "mutability": "mutable",
                  "name": "",
                  "nodeType": "VariableDeclaration",
                  "scope": 2897,
                  "src": "495:7:12",
                  "stateVariable": false,
                  "storageLocation": "default",
                  "typeDescriptions": {
                    "typeIdentifier": "t_uint256",
                    "typeString": "uint256"
                  },
                  "typeName": {
                    "id": 2894,
                    "name": "uint256",
                    "nodeType": "ElementaryTypeName",
                    "src": "495:7:12",
                    "typeDescriptions": {
                      "typeIdentifier": "t_uint256",
                      "typeString": "uint256"
                    }
                  },
                  "visibility": "internal"
                }
              ],
              "src": "494:9:12"
            },
            "scope": 2916,
            "src": "449:55:12",
            "stateMutability": "view",
            "virtual": false,
            "visibility": "external"
          },
          {
            "documentation": {
              "id": 2898,
              "nodeType": "StructuredDocumentation",
              "src": "510:171:12",
              "text": " @dev Returns a token ID owned by `owner` at a given `index` of its token list.\n Use along with {balanceOf} to enumerate all of ``owner``'s tokens."
            },
            "functionSelector": "2f745c59",
            "id": 2907,
            "implemented": false,
            "kind": "function",
            "modifiers": [],
            "name": "tokenOfOwnerByIndex",
            "nodeType": "FunctionDefinition",
            "parameters": {
              "id": 2903,
              "nodeType": "ParameterList",
              "parameters": [
                {
                  "constant": false,
                  "id": 2900,
                  "mutability": "mutable",
                  "name": "owner",
                  "nodeType": "VariableDeclaration",
                  "scope": 2907,
                  "src": "715:13:12",
                  "stateVariable": false,
                  "storageLocation": "default",
                  "typeDescriptions": {
                    "typeIdentifier": "t_address",
                    "typeString": "address"
                  },
                  "typeName": {
                    "id": 2899,
                    "name": "address",
                    "nodeType": "ElementaryTypeName",
                    "src": "715:7:12",
                    "stateMutability": "nonpayable",
                    "typeDescriptions": {
                      "typeIdentifier": "t_address",
                      "typeString": "address"
                    }
                  },
                  "visibility": "internal"
                },
                {
                  "constant": false,
                  "id": 2902,
                  "mutability": "mutable",
                  "name": "index",
                  "nodeType": "VariableDeclaration",
                  "scope": 2907,
                  "src": "730:13:12",
                  "stateVariable": false,
                  "storageLocation": "default",
                  "typeDescriptions": {
                    "typeIdentifier": "t_uint256",
                    "typeString": "uint256"
                  },
                  "typeName": {
                    "id": 2901,
                    "name": "uint256",
                    "nodeType": "ElementaryTypeName",
                    "src": "730:7:12",
                    "typeDescriptions": {
                      "typeIdentifier": "t_uint256",
                      "typeString": "uint256"
                    }
                  },
                  "visibility": "internal"
                }
              ],
              "src": "714:30:12"
            },
            "returnParameters": {
              "id": 2906,
              "nodeType": "ParameterList",
              "parameters": [
                {
                  "constant": false,
                  "id": 2905,
                  "mutability": "mutable",
                  "name": "",
                  "nodeType": "VariableDeclaration",
                  "scope": 2907,
                  "src": "768:7:12",
                  "stateVariable": false,
                  "storageLocation": "default",
                  "typeDescriptions": {
                    "typeIdentifier": "t_uint256",
                    "typeString": "uint256"
                  },
                  "typeName": {
                    "id": 2904,
                    "name": "uint256",
                    "nodeType": "ElementaryTypeName",
                    "src": "768:7:12",
                    "typeDescriptions": {
                      "typeIdentifier": "t_uint256",
                      "typeString": "uint256"
                    }
                  },
                  "visibility": "internal"
                }
              ],
              "src": "767:9:12"
            },
            "scope": 2916,
            "src": "686:91:12",
            "stateMutability": "view",
            "virtual": false,
            "visibility": "external"
          },
          {
            "documentation": {
              "id": 2908,
              "nodeType": "StructuredDocumentation",
              "src": "783:164:12",
              "text": " @dev Returns a token ID at a given `index` of all the tokens stored by the contract.\n Use along with {totalSupply} to enumerate all tokens."
            },
            "functionSelector": "4f6ccce7",
            "id": 2915,
            "implemented": false,
            "kind": "function",
            "modifiers": [],
            "name": "tokenByIndex",
            "nodeType": "FunctionDefinition",
            "parameters": {
              "id": 2911,
              "nodeType": "ParameterList",
              "parameters": [
                {
                  "constant": false,
                  "id": 2910,
                  "mutability": "mutable",
                  "name": "index",
                  "nodeType": "VariableDeclaration",
                  "scope": 2915,
                  "src": "974:13:12",
                  "stateVariable": false,
                  "storageLocation": "default",
                  "typeDescriptions": {
                    "typeIdentifier": "t_uint256",
                    "typeString": "uint256"
                  },
                  "typeName": {
                    "id": 2909,
                    "name": "uint256",
                    "nodeType": "ElementaryTypeName",
                    "src": "974:7:12",
                    "typeDescriptions": {
                      "typeIdentifier": "t_uint256",
                      "typeString": "uint256"
                    }
                  },
                  "visibility": "internal"
                }
              ],
              "src": "973:15:12"
            },
            "returnParameters": {
              "id": 2914,
              "nodeType": "ParameterList",
              "parameters": [
                {
                  "constant": false,
                  "id": 2913,
                  "mutability": "mutable",
                  "name": "",
                  "nodeType": "VariableDeclaration",
                  "scope": 2915,
                  "src": "1012:7:12",
                  "stateVariable": false,
                  "storageLocation": "default",
                  "typeDescriptions": {
                    "typeIdentifier": "t_uint256",
                    "typeString": "uint256"
                  },
                  "typeName": {
                    "id": 2912,
                    "name": "uint256",
                    "nodeType": "ElementaryTypeName",
                    "src": "1012:7:12",
                    "typeDescriptions": {
                      "typeIdentifier": "t_uint256",
                      "typeString": "uint256"
                    }
                  },
                  "visibility": "internal"
                }
              ],
              "src": "1011:9:12"
            },
            "scope": 2916,
            "src": "952:69:12",
            "stateMutability": "view",
            "virtual": false,
            "visibility": "external"
          }
        ],
        "scope": 2917,
        "src": "317:706:12"
      }
    ],
    "src": "129:895:12"
  },
  "compiler": {
    "name": "solc",
    "version": "0.8.1+commit.df193b15.Emscripten.clang"
  },
  "networks": {},
  "schemaVersion": "3.4.3",
  "updatedAt": "2022-03-14T13:42:39.687Z",
  "devdoc": {
    "details": "See https://eips.ethereum.org/EIPS/eip-721",
    "kind": "dev",
    "methods": {
      "approve(address,uint256)": {
        "details": "Gives permission to `to` to transfer `tokenId` token to another account. The approval is cleared when the token is transferred. Only a single account can be approved at a time, so approving the zero address clears previous approvals. Requirements: - The caller must own the token or be an approved operator. - `tokenId` must exist. Emits an {Approval} event."
      },
      "balanceOf(address)": {
        "details": "Returns the number of tokens in ``owner``'s account."
      },
      "getApproved(uint256)": {
        "details": "Returns the account approved for `tokenId` token. Requirements: - `tokenId` must exist."
      },
      "isApprovedForAll(address,address)": {
        "details": "Returns if the `operator` is allowed to manage all of the assets of `owner`. See {setApprovalForAll}"
      },
      "ownerOf(uint256)": {
        "details": "Returns the owner of the `tokenId` token. Requirements: - `tokenId` must exist."
      },
      "safeTransferFrom(address,address,uint256)": {
        "details": "Safely transfers `tokenId` token from `from` to `to`, checking first that contract recipients are aware of the ERC721 protocol to prevent tokens from being forever locked. Requirements: - `from` cannot be the zero address. - `to` cannot be the zero address. - `tokenId` token must exist and be owned by `from`. - If the caller is not `from`, it must be have been allowed to move this token by either {approve} or {setApprovalForAll}. - If `to` refers to a smart contract, it must implement {IERC721Receiver-onERC721Received}, which is called upon a safe transfer. Emits a {Transfer} event."
      },
      "safeTransferFrom(address,address,uint256,bytes)": {
        "details": "Safely transfers `tokenId` token from `from` to `to`. Requirements: - `from` cannot be the zero address. - `to` cannot be the zero address. - `tokenId` token must exist and be owned by `from`. - If the caller is not `from`, it must be approved to move this token by either {approve} or {setApprovalForAll}. - If `to` refers to a smart contract, it must implement {IERC721Receiver-onERC721Received}, which is called upon a safe transfer. Emits a {Transfer} event."
      },
      "setApprovalForAll(address,bool)": {
        "details": "Approve or remove `operator` as an operator for the caller. Operators can call {transferFrom} or {safeTransferFrom} for any token owned by the caller. Requirements: - The `operator` cannot be the caller. Emits an {ApprovalForAll} event."
      },
      "supportsInterface(bytes4)": {
        "details": "Returns true if this contract implements the interface defined by `interfaceId`. See the corresponding https://eips.ethereum.org/EIPS/eip-165#how-interfaces-are-identified[EIP section] to learn more about how these ids are created. This function call must use less than 30 000 gas."
      },
      "tokenByIndex(uint256)": {
        "details": "Returns a token ID at a given `index` of all the tokens stored by the contract. Use along with {totalSupply} to enumerate all tokens."
      },
      "tokenOfOwnerByIndex(address,uint256)": {
        "details": "Returns a token ID owned by `owner` at a given `index` of its token list. Use along with {balanceOf} to enumerate all of ``owner``'s tokens."
      },
      "totalSupply()": {
        "details": "Returns the total amount of tokens stored by the contract."
      },
      "transferFrom(address,address,uint256)": {
        "details": "Transfers `tokenId` token from `from` to `to`. WARNING: Usage of this method is discouraged, use {safeTransferFrom} whenever possible. Requirements: - `from` cannot be the zero address. - `to` cannot be the zero address. - `tokenId` token must be owned by `from`. - If the caller is not `from`, it must be approved to move this token by either {approve} or {setApprovalForAll}. Emits a {Transfer} event."
      }
    },
    "title": "ERC-721 Non-Fungible Token Standard, optional enumeration extension",
    "version": 1
  },
  "userdoc": {
    "kind": "user",
    "methods": {},
    "version": 1
  }
}